<svg width="24" height="24" viewBox="0 0 24 24" fill="none" xmlns="http://www.w3.org/2000/svg">
<g clip-path="url(#clip0)">
<path d="M13.2863 14.9399L19.661 14.9399C20.578 14.9399 21.3162 15.695 21.3162 16.633L21.3162 22.307C21.3162 23.245 20.578 24 19.661 24L13.2863 24C12.3693 24 11.6312 23.245 11.6312 22.307L11.6312 16.6101C11.6312 15.695 12.3693 14.9399 13.2863 14.9399Z" fill="#C0D271"/>
<path d="M1.65523 14.9399L8.02989 14.9399C8.94694 14.9399 9.68506 15.6949 9.68506 16.633L9.68506 22.307C9.68506 23.245 8.94694 24 8.02989 24L1.65523 24C0.738176 24 5.82401e-05 23.245 5.83221e-05 22.307L5.88202e-05 16.6101C5.89002e-05 15.6949 0.738177 14.9399 1.65523 14.9399Z" fill="#C0D271"/>
<path d="M1.65524 3.63777L8.02989 3.63777C8.94694 3.63777 9.68506 4.39277 9.68506 5.33081L9.68506 11.0277C9.68506 11.9657 8.94694 12.7207 8.02989 12.7207L1.65524 12.7207C0.738184 12.7207 6.58695e-05 11.9657 6.59515e-05 11.0277L6.64496e-05 5.33081C6.65316e-05 4.39277 0.738185 3.63777 1.65524 3.63777Z" fill="#C0D271"/>
<path d="M14.1137 -7.54001e-06L22.3448 -6.82042e-06C23.2619 -6.74025e-06 24 0.754998 24 1.69304L24 11.0505C24 11.9886 23.2619 12.7436 22.3448 12.7436L14.0913 12.7436C13.1743 12.7436 12.4362 11.9886 12.4362 11.0505L12.4362 1.69303C12.4585 0.754997 13.1966 -7.62018e-06 14.1137 -7.54001e-06Z" fill="#54AB68"/>
</g>
<defs>
<clipPath id="clip0">
<rect width="24" height="24" fill="white" transform="translate(24 24) rotate(-180)"/>
</clipPath>
</defs>
</svg>
